<?xml version="1.0" encoding="UTF-8"?>
<svg width="31px" height="24px" viewBox="0 0 31 24" version="1.1" xmlns="http://www.w3.org/2000/svg" xmlns:xlink="http://www.w3.org/1999/xlink">
    <!-- Generator: Sketch 49.3 (51167) - http://www.bohemiancoding.com/sketch -->
    <title>cloud-computing</title>
    <desc>Created with Sketch.</desc>
    <defs>
        <linearGradient x1="87.8965247%" y1="1.28047446%" x2="14.2714751%" y2="114.925436%" id="linearGradient-1">
            <stop stop-color="#FF7676" offset="0%"></stop>
            <stop stop-color="#F54EA2" offset="100%"></stop>
        </linearGradient>
    </defs>
    <g id="cloud-computing" stroke="none" stroke-width="1" fill="none" fill-rule="evenodd">
        <path d="M24.1530376,8.41227025 C24.0894373,3.76291541 20.2916881,0 15.6325692,0 C13.5600583,0 11.563344,0.754751086 10.0104035,2.12523897 C8.62440623,3.34831453 7.6762927,4.98277471 7.30081927,6.77727403 C7.27339204,6.77697623 7.24620279,6.77673799 7.21907304,6.77673799 C3.23855497,6.77673799 0,10.0187965 0,14.0037536 C0,17.9887107 3.23855497,21.2307692 7.21913253,21.2307692 L12.2609238,21.2307692 C12.6196196,21.2307692 12.9105505,20.9396373 12.9105505,20.5804278 C12.9105505,20.2212182 12.6196196,19.9300863 12.2609238,19.9300863 L7.21913253,19.9300863 C3.95487569,19.9300863 1.29925347,17.2715423 1.29925347,14.0037536 C1.29925347,10.7359649 3.95487569,8.07742093 7.21913253,8.07742093 C7.39303664,8.07742093 7.57687643,8.08677193 7.78124201,8.10600998 C8.12762235,8.13847047 8.43860311,7.8918303 8.48578271,7.54637921 C8.71971734,5.82984462 9.56627278,4.25107355 10.8695719,3.10090008 C12.1850675,1.93994615 13.8765721,1.30062338 15.6325097,1.30062338 C19.6148127,1.30062338 22.8545575,4.54399225 22.8545575,8.53061703 C22.8545575,8.67415791 22.8439079,8.82210628 22.8326633,8.97875048 L22.8278442,9.04533916 C22.8143389,9.2366476 22.8858519,9.42420372 23.0234046,9.557798 C23.1607787,9.69139227 23.3499135,9.75738534 23.5408332,9.73826641 C23.7136069,9.72081518 23.8879275,9.71205978 24.0589164,9.71205978 C26.872855,9.71205978 29.162285,12.0039491 29.162285,14.8210433 C29.162285,17.6380778 26.8729145,19.9299672 24.0589164,19.9299672 L18.7572506,19.9299672 C18.3985548,19.9299672 18.1076239,20.2210991 18.1076239,20.5803086 C18.1076239,20.9395182 18.3985548,21.2306501 18.7572506,21.2306501 L24.0589164,21.2306501 C27.5892947,21.2306501 30.4615385,18.3553653 30.4615385,14.8210433 C30.461479,11.3184669 27.6402225,8.46283714 24.1530376,8.41227025 Z" id="Shape" stroke="url(#linearGradient-1)" fill="url(#linearGradient-1)" fill-rule="nonzero"></path>
        <path d="M16.9232951,4.76923077 C14.0290452,4.76923077 11.5515196,6.82862058 11.1602779,9.55946525 C11.1086153,9.92008933 11.3738381,10.2523463 11.7525285,10.301536 C11.7842868,10.3056402 11.8157915,10.3076923 11.8469159,10.3076923 C12.1876359,10.3076923 12.4845535,10.068081 12.5317789,9.73769502 C12.829901,7.6566376 14.7178384,6.08727404 16.9232317,6.08727404 C17.3055354,6.08727404 17.6153846,5.79225639 17.6153846,5.42825241 C17.615448,5.06430878 17.3055354,4.76923077 16.9232951,4.76923077 Z" id="Shape" stroke="url(#linearGradient-1)" fill="url(#linearGradient-1)" fill-rule="nonzero"></path>
        <path d="M18.248884,16.1300258 L15.9316606,14.1077577 C15.5321937,13.7589336 14.9295219,13.7589906 14.5298799,14.1077007 L12.2126566,16.1300828 C11.9502347,16.3590414 11.9275981,16.7524945 12.1619575,17.0088688 C12.3963169,17.2651292 12.7989926,17.2874152 13.0614728,17.0583996 L14.5937643,15.7211264 L14.5937643,23.3776453 C14.5937643,23.7213967 14.8789395,24 15.2307994,24 C15.5826011,24 15.8678346,23.7213967 15.8678346,23.3776453 L15.8678346,15.7210124 L17.4001844,17.0583426 C17.5216523,17.1644147 17.6732828,17.2165674 17.82433,17.2165674 C17.9994724,17.2165674 18.173798,17.1465176 18.2996998,17.0088118 C18.5339425,16.7524375 18.5112475,16.3590414 18.248884,16.1300258 Z" id="Shape" stroke="url(#linearGradient-1)" fill="url(#linearGradient-1)" fill-rule="nonzero"></path>
    </g>
</svg>