<?xml version="1.0" encoding="UTF-8"?>
<svg width="37px" height="38px" viewBox="0 0 37 38" version="1.1" xmlns="http://www.w3.org/2000/svg" xmlns:xlink="http://www.w3.org/1999/xlink">
    <!-- Generator: Sketch 49.3 (51167) - http://www.bohemiancoding.com/sketch -->
    <title>Date Icon</title>
    <desc>Created with Sketch.</desc>
    <defs></defs>
    <g id="Date-Icon" stroke="none" stroke-width="1" fill="none" fill-rule="evenodd">
        <path d="M26.2227999,37.0028771 C25.5050221,36.8614882 25.7127999,35.7734327 26.4375221,35.9128771 C31.2619666,36.8639882 35.7230777,33.1512105 35.7230777,28.2814882 C35.7230777,25.0356549 33.9783555,24.2178771 34.9150221,23.684266 C35.1811332,23.5320438 35.5202999,23.6250993 35.6725221,23.891766 C36.4325221,25.2245438 36.8341888,26.7423216 36.8341888,28.2814882 C36.8341888,33.8548216 31.7286332,38.0878771 26.2227999,37.0028771" id="Fill-311" fill="#FFFFFF"></path>
        <path d="M19.506315,31.6644056 C16.1418705,23.2724612 26.1249261,15.812739 33.2215927,21.3549612 C33.8004816,21.8069056 33.116315,22.682739 32.5374261,22.2305167 C31.1599261,21.1546834 29.5079816,20.5857945 27.7602039,20.5857945 C22.2732594,20.5857945 18.4932594,26.152739 20.5377039,31.2507945 C20.6518705,31.5355167 20.5135372,31.8591279 20.228815,31.9732945 C19.9432594,32.0874612 19.6204816,31.9488501 19.506315,31.6644056" id="Fill-312" fill="#FFFFFF"></path>
        <path d="M25.7215973,10.4904521 C25.2818751,10.2329521 24.9021529,10.0107299 24.103264,10.0107299 C23.3052084,10.0107299 22.9438195,10.2223965 22.4865973,10.4901743 C21.0454862,11.334341 19.6135417,11.359341 18.1288195,10.4904521 C17.6713195,10.2223965 17.3099306,10.0107299 16.5115973,10.0107299 C14.8302084,10.0107299 14.7827084,11.121841 12.7163195,11.121841 C10.6499306,11.121841 10.6021529,10.0107299 8.92020841,10.0107299 C7.24020841,10.0107299 7.19020841,11.121841 5.12437508,11.121841 C3.05854175,11.121841 3.00993063,10.0107299 1.32881952,10.0107299 C0.594652857,10.0107299 0.593541745,8.89961877 1.32881952,8.89961877 C3.39437508,8.89961877 3.44326397,10.0107299 5.12437508,10.0107299 C5.92270841,10.0107299 6.28437508,9.79934099 6.7415973,9.53128544 C8.20215286,8.67656321 9.63243063,8.6729521 11.0990973,9.53128544 C11.5563195,9.79934099 11.9179862,10.0107299 12.7163195,10.0107299 C14.3965973,10.0107299 14.445764,8.89961877 16.5115973,8.89961877 C18.578264,8.89961877 18.625764,10.0107299 20.3079862,10.0107299 C21.9893751,10.0107299 22.0371529,8.89961877 24.103264,8.89961877 C26.1696529,8.89961877 26.2193751,10.0107299 27.9013195,10.0107299 C29.5860417,10.0107299 29.630764,8.89961877 31.6990973,8.89961877 C32.433264,8.89961877 32.4340973,10.0107299 31.6990973,10.0107299 C30.9002084,10.0107299 30.5204862,10.2329521 30.080764,10.4904521 C28.6202084,11.3448965 27.1885417,11.3487854 25.7215973,10.4904521" id="Fill-320" fill="#FFFFFF"></path>
        <path d="M9,4.4397223 L9,0.550833412 C9,-0.183055477 10.1111111,-0.184166588 10.1111111,0.550833412 L10.1111111,4.4397223 C10.1111111,5.17388897 9,5.1747223 9,4.4397223" id="Fill-321" fill="#FFFFFF"></path>
        <path d="M26,29.7909421 L26,24.7184784 C26,23.761232 27.3595149,23.7597827 27.3595149,24.7184784 L27.3595149,29.7909421 C27.3595149,30.7485508 26,30.7496378 26,29.7909421" id="Fill-321-Copy" fill="#FFFFFF"></path>
        <path d="M26.674107,29 L31.4324093,29 C32.330369,29 32.3317285,30.4492754 31.4324093,30.4492754 L26.674107,30.4492754 C25.7758075,30.4492754 25.7747879,29 26.674107,29 Z" id="Fill-321-Copy-2" fill="#FFFFFF"></path>
        <path d="M22.7222222,4.4397223 L22.7222222,0.550833412 C22.7222222,-0.183055477 23.8333333,-0.184166588 23.8333333,0.550833412 L23.8333333,4.4397223 C23.8333333,5.17388897 22.7222222,5.1747223 22.7222222,4.4397223" id="Fill-323" fill="#FFFFFF"></path>
        <path d="M18.5380556,33.2802163 L3.83333333,33.2802163 C1.99527778,33.2802163 0.5,31.7077163 0.5,29.7746608 L0.5,6.84132745 C0.5,5.17410523 1.625,3.72799411 3.175,3.40327189 C3.64944444,3.31354967 3.53166667,3.33577189 7.16666667,3.33577189 C7.47333333,3.33577189 7.72222222,3.58466078 7.72222222,3.89132745 L7.72222222,4.446883 C7.72222222,5.36604967 8.46972222,6.11354967 9.38888889,6.11354967 C10.3080556,6.11354967 11.0555556,5.36604967 11.0555556,4.446883 L11.0555556,3.89132745 C11.0555556,3.58466078 11.3041667,3.33577189 11.6111111,3.33577189 L21.0555556,3.33577189 C21.3622222,3.33577189 21.6111111,3.58466078 21.6111111,3.89132745 L21.6111111,4.446883 C21.6111111,5.36604967 22.3586111,6.11354967 23.2777778,6.11354967 C24.1969444,6.11354967 24.9444444,5.36604967 24.9444444,4.446883 L24.9444444,3.89132745 C24.9444444,3.58466078 25.1930556,3.33577189 25.5,3.33577189 C29.5622222,3.33577189 29.4594444,3.32382745 29.7372222,3.35632745 C31.5519444,3.58660523 32.7222222,5.14827189 32.7222222,6.84132745 L32.7222222,19.3913274 C32.7222222,20.1254941 31.6111111,20.1263274 31.6111111,19.3913274 L31.6111111,6.84132745 C31.6111111,5.696883 30.8575,4.70827189 29.8194444,4.49077189 C29.4983333,4.43077189 29.6805556,4.446883 26.0555556,4.446883 C26.0555556,5.97882745 24.8094444,7.22466078 23.2777778,7.22466078 C21.7461111,7.22466078 20.5,5.97882745 20.5,4.446883 L12.1666667,4.446883 C12.1666667,5.97882745 10.9205556,7.22466078 9.38888889,7.22466078 C7.85722222,7.22466078 6.61111111,5.97882745 6.61111111,4.446883 C3.72638889,4.446883 3.79194444,4.43910523 3.615,4.45966078 C2.34805556,4.62049411 1.61111111,5.71882745 1.61111111,6.84132745 L1.61111111,29.7746608 C1.61111111,31.0949386 2.60805556,32.1691052 3.83333333,32.1691052 L18.5380556,32.1691052 C18.845,32.1691052 19.0936111,32.4179941 19.0936111,32.7246608 C19.0936111,33.0316052 18.845,33.2802163 18.5380556,33.2802163" id="Fill-324" fill="#FFFFFF"></path>
    </g>
</svg>