<?xml version="1.0" encoding="UTF-8"?>
<svg width="38px" height="40px" viewBox="0 0 38 40" version="1.1" xmlns="http://www.w3.org/2000/svg" xmlns:xlink="http://www.w3.org/1999/xlink">
    <!-- Generator: Sketch 49.3 (51167) - http://www.bohemiancoding.com/sketch -->
    <title>logout</title>
    <desc>Created with Sketch.</desc>
    <defs></defs>
    <g id="logout" stroke="none" stroke-width="1" fill="none" fill-rule="evenodd">
        <path d="M17.8490678,37.6440678 L7.43381356,37.6440678 C4.60330508,37.6440678 2.30669492,35.3389831 2.30669492,32.5169492 L2.30669492,7.41525424 C2.30669492,4.58474576 4.61177966,2.28813559 7.43381356,2.28813559 L18.0185593,2.28813559 C18.6541525,2.28813559 19.1626271,1.77966102 19.1626271,1.1440678 C19.1626271,0.508474576 18.6541525,0 18.0185593,0 L7.43381356,0 C3.34059322,0 0.018559322,3.33050847 0.018559322,7.41525424 L0.018559322,32.5169492 C0.018559322,36.6101695 3.3490678,39.9322034 7.43381356,39.9322034 L17.8490678,39.9322034 C18.484661,39.9322034 18.9931356,39.4237288 18.9931356,38.7881356 C18.9931356,38.1525424 18.4761864,37.6440678 17.8490678,37.6440678 Z" id="Shape" fill="#FFFFFF" fill-rule="nonzero"></path>
        <path d="M36.6965254,19.1610169 L29.425339,11.8898305 C28.9761864,11.440678 28.2558475,11.440678 27.8066949,11.8898305 C27.3575424,12.3389831 27.3575424,13.059322 27.8066949,13.5084746 L33.1287288,18.8305085 L9.91686441,18.8305085 C9.28127119,18.8305085 8.77279661,19.3389831 8.77279661,19.9745763 C8.77279661,20.6101695 9.28127119,21.1186441 9.91686441,21.1186441 L33.1287288,21.1186441 L27.8066949,26.440678 C27.3575424,26.8898305 27.3575424,27.6101695 27.8066949,28.059322 C28.0270339,28.279661 28.3236441,28.3983051 28.6117797,28.3983051 C28.8999153,28.3983051 29.1965254,28.2881356 29.4168644,28.059322 L36.6880508,20.7881356 C37.145678,20.3305085 37.145678,19.6016949 36.6965254,19.1610169 Z" id="Shape" fill="#FFFFFF" fill-rule="nonzero"></path>
    </g>
</svg>