<?xml version="1.0" encoding="UTF-8"?>
<svg width="30px" height="30px" viewBox="0 0 30 30" version="1.1" xmlns="http://www.w3.org/2000/svg" xmlns:xlink="http://www.w3.org/1999/xlink">
    <!-- Generator: Sketch 49.3 (51167) - http://www.bohemiancoding.com/sketch -->
    <title>Tick with Arrow</title>
    <desc>Created with Sketch.</desc>
    <defs>
        <linearGradient x1="87.8965247%" y1="1.28047446%" x2="14.2714751%" y2="114.925436%" id="linearGradient-1">
            <stop stop-color="#FF7676" offset="0%"></stop>
            <stop stop-color="#F54EA2" offset="100%"></stop>
        </linearGradient>
        <circle id="path-2" cx="15" cy="15" r="15"></circle>
        <filter x="-236.7%" y="-170.0%" width="573.3%" height="573.3%" filterUnits="objectBoundingBox" id="filter-3">
            <feMorphology radius="1" operator="dilate" in="SourceAlpha" result="shadowSpreadOuter1"></feMorphology>
            <feOffset dx="0" dy="20" in="shadowSpreadOuter1" result="shadowOffsetOuter1"></feOffset>
            <feMorphology radius="1" operator="erode" in="SourceAlpha" result="shadowInner"></feMorphology>
            <feOffset dx="0" dy="20" in="shadowInner" result="shadowInner"></feOffset>
            <feComposite in="shadowOffsetOuter1" in2="shadowInner" operator="out" result="shadowOffsetOuter1"></feComposite>
            <feGaussianBlur stdDeviation="20" in="shadowOffsetOuter1" result="shadowBlurOuter1"></feGaussianBlur>
            <feColorMatrix values="0 0 0 0 0   0 0 0 0 0   0 0 0 0 0  0 0 0 0.235931839 0" type="matrix" in="shadowBlurOuter1"></feColorMatrix>
        </filter>
    </defs>
    <g id="Tick-with-Arrow" stroke="none" stroke-width="1" fill="none" fill-rule="evenodd">
        <g id="Oval-Copy">
            <use fill="black" fill-opacity="1" filter="url(#filter-3)" xlink:href="#path-2"></use>
            <use stroke="url(#linearGradient-1)" stroke-width="2" xlink:href="#path-2"></use>
        </g>
        <path d="M22.7656839,9.23931152 C22.453278,8.92022949 21.9467786,8.92022949 21.6343103,9.23931152 L12.049822,19.0277384 L8.36570146,15.2652641 C8.05329559,14.946182 7.54679621,14.9462139 7.23432784,15.2652641 C6.92189072,15.5843142 6.92189072,16.1015858 7.23432784,16.4206678 L11.4841352,20.7607962 C11.7964473,21.0798463 12.3033217,21.0796229 12.6155088,20.7607962 L22.7656839,10.3947472 C23.078121,10.0756971 23.0780897,9.55839355 22.7656839,9.23931152 Z" id="Shape" stroke="url(#linearGradient-1)" fill="url(#linearGradient-1)" fill-rule="nonzero"></path>
    </g>
</svg>