<?xml version="1.0" encoding="UTF-8"?>
<svg width="163px" height="162px" viewBox="0 0 163 162" version="1.1" xmlns="http://www.w3.org/2000/svg" xmlns:xlink="http://www.w3.org/1999/xlink">
    <!-- Generator: Sketch 49.3 (51167) - http://www.bohemiancoding.com/sketch -->
    <title>Wedding Venue</title>
    <desc>Created with Sketch.</desc>
    <defs>
        <linearGradient x1="87.8965247%" y1="1.28047446%" x2="14.2714751%" y2="114.925436%" id="linearGradient-1">
            <stop stop-color="#FF7676" offset="0%"></stop>
            <stop stop-color="#F54EA2" offset="100%"></stop>
        </linearGradient>
    </defs>
    <g id="Wedding-Venue" stroke="none" stroke-width="1" fill="none" fill-rule="evenodd">
        <path d="M118.373,33.142 C117.083,34.17 113.278,36 110.831,36 C105.872,36 105.872,32 100.912,32 C95.954,32 95.954,36 90.996,36 C86.039,36 86.039,32 81.083,32 C76.126,32 76.126,36 71.169,36 C66.211,36 66.211,32 61.254,32 C56.296,32 56.296,36 51.339,36 C49.581,36 46.804,35.266 45.201,34.249 L42,38.206 C47.652,37.64 47.525,42.167 52.739,42.167 C57.696,42.167 57.696,38.167 62.654,38.167 C67.612,38.167 67.612,42.167 72.569,42.167 C77.526,42.167 77.526,38.167 82.482,38.167 C87.439,38.167 87.439,42.167 92.396,42.167 C97.353,42.167 97.353,38.167 102.311,38.167 C107.271,38.167 107.271,42.167 112.231,42.167 C117.189,42.167 117.189,38.167 122.147,38.167 L118.373,33.142" id="Fill-221" fill="url(#linearGradient-1)"></path>
        <polygon id="Fill-222" fill="url(#linearGradient-1)" points="10 161 152.601 161 152.601 154 10 154"></polygon>
        <path d="M129.373,53.4120905 C128.707,44.7450905 124.373,40.0120905 124.373,40.0120905 C119.364,40.0120905 118.643,39.7200905 115.809,42.0060905 L104.29,40.4950905 L103.903,40.6550905 C103.121,40.2710905 102.183,40.0120905 100.924,40.0120905 C96.218,40.0120905 98.792,43.0460905 94.54,43.4120905 L94.338,44.6220905 L94.04,44.7450905 L94,50.0710905 C97.379,49.3010905 97.924,46.2450905 102.257,46.2450905 C107.217,46.2450905 107.217,50.2450905 112.177,50.2450905 C115.014,50.2450905 116.232,48.9390905 117.683,47.8200905 C118.656,47.0700905 120.034,47.0080905 121.024,47.7340905 C128.866,53.4840905 122.072,117.435091 120.939,127.179091 L129.373,127.179091 C129.373,127.179091 130.04,62.0790905 129.373,53.4120905" id="Fill-223" fill="url(#linearGradient-1)"></path>
        <path d="M34.2964444,52.4130821 C34.9624444,43.7460821 39.2964444,39.0120821 39.2964444,39.0120821 C44.3044444,39.0120821 45.0254444,38.7200821 47.8594444,41.0070821 L59.3794444,39.4960821 L59.7654444,39.6560821 C60.5474444,39.2720821 61.4854444,39.0120821 62.7444444,39.0120821 C67.4504444,39.0120821 64.8764444,42.0470821 69.1294444,42.4130821 L69.3304444,43.6230821 L69.6294444,43.7460821 L69.6694444,49.0720821 C66.2904444,48.3010821 65.7444444,45.2460821 61.4104444,45.2460821 C56.4514444,45.2460821 56.4514444,49.2460821 51.4914444,49.2460821 C48.6544444,49.2460821 47.4364444,47.9400821 45.9864444,46.8210821 C45.0124444,46.0710821 43.6344444,46.0080821 42.6444444,46.7350821 C34.8024444,52.4850821 41.5964444,116.436082 42.7294444,126.179082 L34.2964444,126.179082 C34.2964444,126.179082 33.6294444,61.0800821 34.2964444,52.4130821" id="Fill-224" fill="url(#linearGradient-1)"></path>
        <path d="M45.1468242,6.40048335 L46.3098242,3.29648335 C47.2378242,0.822483345 50.9838242,2.22348335 50.0548242,4.70048335 L48.8918242,7.80448335 C47.9648242,10.2784833 44.2178242,8.87748335 45.1468242,6.40048335" id="Fill-225" fill="url(#linearGradient-1)"></path>
        <path d="M33.5733837,8.8491898 L32.2023837,5.8311898 C31.1093837,3.4271898 34.7483837,1.7681898 35.8433837,4.1771898 L37.2153837,7.1941898 C37.6723837,8.1991898 37.2273837,9.3851898 36.2223837,9.8421898 C35.2183837,10.2981898 34.0313837,9.8561898 33.5733837,8.8491898" id="Fill-226" fill="url(#linearGradient-1)"></path>
        <path d="M26.4005493,18.0558184 L23.2975493,16.8918184 C20.8205493,15.9628184 22.2255493,12.2208184 24.7015493,13.1458184 L27.8045493,14.3098184 C28.8395493,14.6988184 29.3635493,15.8508184 28.9755493,16.8848184 C28.5925493,17.9058184 27.4535493,18.4478184 26.4005493,18.0558184" id="Fill-227" fill="url(#linearGradient-1)"></path>
        <path d="M24.1764533,27.5745901 L27.1934533,26.2025901 C29.6044533,25.1085901 31.2544533,28.7505901 28.8504533,29.8435901 L25.8324533,31.2155901 C23.4254533,32.3105901 21.7694533,28.6695901 24.1764533,27.5745901" id="Fill-228" fill="url(#linearGradient-1)"></path>
        <path d="M36.211238,30.6573961 C40.073238,25.6753961 44.748238,21.3553961 50.026238,17.8813961 C46.431238,9.80939609 34.761238,10.0963961 31.634238,18.4333961 C29.870238,23.1403961 31.910238,28.3323961 36.211238,30.6573961" id="Fill-229" fill="url(#linearGradient-1)"></path>
        <path d="M146.994396,59.0000267 C144.324396,59.0140267 144.339396,63.0570267 147.014396,63.0430267 C149.685396,63.0310267 149.669396,58.9880267 146.994396,59.0000267" id="Fill-230" fill="#222B43"></path>
        <path d="M28.6603656,43.9818128 C24.5933656,36.3758128 13.3783656,37.7968128 11.2683656,46.0828128 C5.34236557,43.1518128 -1.11463443,48.4118128 0.163365571,54.6508128 L25.5293656,54.6508128 C26.2263656,50.9558128 27.2853656,47.3898128 28.6603656,43.9818128" id="Fill-231" fill="url(#linearGradient-1)"></path>
        <path d="M139,81.7845876 C142.927,78.2635876 149.123,80.2265876 150.408,85.2755876 C154.817,83.0975876 159.614,87.0085876 158.665,91.6455876 L139,91.6455876 L139,81.7845876" id="Fill-232" fill="url(#linearGradient-1)"></path>
        <path d="M145.289219,54.3811447 C142.130219,35.2071447 130.076219,18.1601447 113.045219,8.77914469 C110.731219,7.50414469 112.656219,3.99914469 114.975219,5.27514469 C133.071219,15.2431447 145.879219,33.3561447 149.237219,53.7301447 C149.416219,54.8201447 148.678219,55.8491447 147.588219,56.0291447 C146.475219,56.2071447 145.467219,55.4531447 145.289219,54.3811447" id="Fill-233" fill="#222B43"></path>
        <path d="M138.99285,144.883724 L130.99285,144.883724 C129.88785,144.883724 128.99285,143.988724 128.99285,142.883724 L128.99285,65.0837241 C128.99285,41.3707241 111.25885,21.3147241 87.74185,18.4337241 C85.12685,18.1127241 85.59285,14.1607241 88.22785,14.4627241 C113.74885,17.5897241 132.99285,39.3517241 132.99285,65.0837241 L132.99285,140.883724 L136.99285,140.883724 L136.99285,65.0837241 C136.99285,38.4927241 118.01785,15.7357241 91.87485,10.9737241 C89.28085,10.5007241 89.97785,6.57572406 92.59185,7.03772406 C120.63685,12.1467241 140.99285,36.5587241 140.99285,65.0837241 L140.99285,142.883724 C140.99285,143.988724 140.09685,144.883724 138.99285,144.883724" id="Fill-234" fill="#222B43"></path>
        <path d="M33,145.588091 L25,145.588091 C23.896,145.588091 23,144.693091 23,143.588091 L23,65.1210907 C23,36.4920907 43.443,12.0640907 71.608,7.03809071 C74.209,6.57309071 74.915,10.5100907 72.311,10.9760907 C46.056,15.6600907 27,38.4320907 27,65.1210907 L27,141.588091 L31,141.588091 L31,65.1210907 C31,39.2470907 50.363,17.4710907 76.039,14.4680907 C78.647,14.1450907 79.143,18.1330907 76.504,18.4410907 C52.843,21.2080907 35,41.2770907 35,65.1210907 L35,143.588091 C35,144.693091 34.105,145.588091 33,145.588091" id="Fill-235" fill="#222B43"></path>
        <path d="M121.317,143 L39.9830003,143 C37.3410003,143 37.3370003,139 39.9830003,139 L121.317,139 C122.421,139 123.317,139.896 123.317,141 C123.317,142.104 122.421,143 121.317,143" id="Fill-236" fill="#222B43"></path>
        <path d="M154.317431,151.693062 C0.75343117,151.693062 8.78943117,152.383062 8.14043117,150.293062 C7.55843117,148.413062 8.21143117,148.533062 21.5524312,139.381062 C23.7294312,137.884062 25.9984312,141.182062 23.8154312,142.679062 L16.5014312,147.693062 L147.556431,147.693062 L139.863431,142.708062 C137.639431,141.266062 139.828431,137.911062 142.038431,139.352062 L155.405431,148.023062 C156.149431,148.503062 156.486431,149.413062 156.235431,150.263062 C155.983431,151.113062 155.202431,151.693062 154.317431,151.693062" id="Fill-237" fill="#222B43"></path>
        <path d="M154.333,161.72 L10,161.72 C8.896,161.72 8,160.82 8,159.72 L8,148.98 C8,146.34 12,146.34 12,148.98 L12,157.72 L152.333,157.72 L152.333,148.98 C152.333,146.34 156.333,146.34 156.333,148.98 L156.333,159.72 C156.333,160.82 155.438,161.72 154.333,161.72" id="Fill-238" fill="#222B43"></path>
        <path d="M111.037915,35 C105.344915,35 105.000915,31 101.118915,31 C97.2399147,31 96.8929147,35 91.2029147,35 C85.5159147,35 85.1669147,31 81.2899147,31 C77.4109147,31 77.0659147,35 71.3759147,35 C65.6849147,35 65.3409147,31 61.4599147,31 C59.6879147,31 58.9209147,31.619 57.7589147,32.556 C53.5939147,35.919 49.2829147,35.665 45.7879147,32.92 C43.7059147,31.289 46.1779147,28.14 48.2559147,29.774 C49.1419147,30.468 49.9459147,31 51.5459147,31 C55.4249147,31 55.7699147,27 61.4599147,27 C67.1509147,27 67.4959147,31 71.3759147,31 C75.2849147,31 75.5799147,27 81.2899147,27 C86.9829147,27 87.3169147,31 91.2029147,31 C95.0819147,31 95.4299147,27 101.118915,27 C106.813915,27 107.149915,31 111.037915,31 C112.810915,31 113.578915,30.38 114.739915,29.443 C116.799915,27.786 119.311915,30.894 117.251915,32.556 C115.902915,33.645 114.223915,35 111.037915,35" id="Fill-239" fill="#222B43"></path>
        <path d="M33.9830003,128.879806 C31.3410003,128.879806 31.3370003,124.879806 33.9830003,124.879806 L46.9760003,124.879806 C41.6430003,92.0898056 35.4550003,89.1078056 39.1830003,87.4808056 C64.5330003,76.4238056 66.6580003,50.6178056 66.7050003,42.9708056 C66.7220003,40.3238056 70.7210003,40.3538056 70.7050003,42.9968056 C70.6550003,51.0748056 68.4420003,77.9338056 42.5280003,90.3488056 C44.1750003,94.8058056 48.3500003,107.310806 51.2940003,126.578806 C51.3820003,127.154806 51.2140003,127.740806 50.8340003,128.182806 C49.9750003,129.182806 50.3370003,128.879806 33.9830003,128.879806" id="Fill-240" fill="#222B43"></path>
        <path d="M128.722029,129.917375 C112.376029,129.917375 112.730029,130.219375 111.872029,129.219375 C111.492029,128.777375 111.324029,128.191375 111.412029,127.615375 C114.375029,108.221375 118.583029,95.2463754 120.201029,90.6973754 C94.0360293,78.1853754 91.9910293,51.1193754 92.0000293,42.9813754 C92.0010293,40.3383754 96.0010293,40.3393754 96.0000293,42.9853754 C95.9920293,50.6823754 97.9530293,76.6653754 123.522029,87.8173754 C127.212029,89.4253754 121.142029,92.5723754 115.729029,125.917375 L128.722029,125.917375 C129.827029,125.917375 130.722029,126.812375 130.722029,127.917375 C130.722029,129.021375 129.827029,129.917375 128.722029,129.917375" id="Fill-241" fill="#222B43"></path>
        <path d="M129.961,91 L122.983,91 C120.341,91 120.337,87 122.983,87 L129.961,87 C131.065,87 131.961,87.895 131.961,89 C131.961,90.104 131.065,91 129.961,91" id="Fill-242" fill="#222B43"></path>
        <path d="M40.9600003,91 L33.9830003,91 C31.3410003,91 31.3370003,87 33.9830003,87 L40.9600003,87 C42.0650003,87 42.9600003,87.895 42.9600003,89 C42.9600003,90.104 42.0650003,91 40.9600003,91" id="Fill-243" fill="#222B43"></path>
        <path d="M51,94.167 C51,97.029 55.334,97.03 55.334,94.167 C55.334,91.304 51,91.302 51,94.167 Z M53.167,100.333 C49.766,100.333 47,97.567 47,94.167 C47,90.767 49.766,88 53.167,88 C56.567,88 59.334,90.767 59.334,94.167 C59.334,97.567 56.567,100.333 53.167,100.333 Z" id="Fill-244" fill="url(#linearGradient-1)"></path>
        <path d="M109,94.167 C109,97.029 113.334,97.03 113.334,94.167 C113.334,91.304 109,91.302 109,94.167 Z M111.167,100.333 C107.766,100.333 105,97.567 105,94.167 C105,90.767 107.766,88 111.167,88 C114.567,88 117.334,90.767 117.334,94.167 C117.334,97.567 114.567,100.333 111.167,100.333 Z" id="Fill-245" fill="url(#linearGradient-1)"></path>
        <path d="M74.1866779,9.04969727 C75.1346779,12.0396973 79.3036779,15.2286973 81.8036779,16.8836973 C96.3416779,7.23669727 86.7076779,1.78269727 83.1296779,4.95369727 C82.3736779,5.62569727 81.2346779,5.62569727 80.4776779,4.95569727 C77.5286779,2.34269727 72.9926779,5.30569727 74.1866779,9.04969727 Z M82.4216779,17.2816973 C82.4226779,17.2826973 82.4246779,17.2836973 82.4256779,17.2846973 C82.4246779,17.2836973 82.4226779,17.2826973 82.4216779,17.2816973 Z M80.3026779,20.6746973 C60.5806779,8.34669727 73.8206779,-3.53230273 81.8016779,1.01169727 C84.1176779,-0.30730273 87.1446779,-0.34830273 89.5186779,0.95769727 C89.5196779,0.95869727 89.5216779,0.95969727 89.5236779,0.96069727 C93.7236779,3.28769727 98.2536779,11.3056973 83.3036779,20.6756973 C82.3976779,21.2436973 81.2286779,21.2546973 80.3026779,20.6746973 Z" id="Fill-246" fill="#222B43"></path>
        <path d="M112.214919,44.0119915 C106.521919,44.0119915 106.178919,40.0119915 102.294919,40.0119915 C98.4169186,40.0119915 98.0689186,44.0119915 92.3789186,44.0119915 C86.6859186,44.0119915 86.3519186,40.0119915 82.4659186,40.0119915 C78.5909186,40.0119915 78.2419186,44.0119915 72.5529186,44.0119915 C66.8619186,44.0119915 66.5169186,40.0119915 62.6379186,40.0119915 C58.7569186,40.0119915 58.4139186,44.0119915 52.7229186,44.0119915 C46.7389186,44.0119915 46.6729186,39.5949915 42.1799186,40.0409915 C39.5729186,40.3249915 39.1369186,36.3189915 41.7879186,36.0599915 C48.2739186,35.4269915 48.6429186,40.0119915 52.7229186,40.0119915 C56.6029186,40.0119915 56.9459186,36.0119915 62.6379186,36.0119915 C68.3339186,36.0119915 68.6649186,40.0119915 72.5529186,40.0119915 C76.4319186,40.0119915 76.7769186,36.0119915 82.4659186,36.0119915 C88.1539186,36.0119915 88.5029186,40.0119915 92.3789186,40.0119915 C96.2579186,40.0119915 96.6059186,36.0119915 102.294919,36.0119915 C107.988919,36.0119915 108.331919,40.0119915 112.214919,40.0119915 C116.093919,40.0119915 116.441919,36.0119915 122.130919,36.0119915 C124.773919,36.0119915 124.777919,40.0119915 122.130919,40.0119915 C118.252919,40.0119915 117.904919,44.0119915 112.214919,44.0119915" id="Fill-247" fill="#222B43"></path>
        <path d="M9.35000028,162 L1.98300028,162 C-0.658999716,162 -0.662999716,158 1.98300028,158 L9.35000028,158 C10.4550003,158 11.3500003,158.89 11.3500003,160 C11.3500003,161.1 10.4550003,162 9.35000028,162" id="Fill-248" fill="#222B43"></path>
        <path d="M160.44975,162 L150.98375,162 C148.34075,162 148.33675,158 150.98375,158 L160.44975,158 C161.55475,158 162.44975,158.89 162.44975,160 C162.44975,161.1 161.55475,162 160.44975,162" id="Fill-249" fill="#222B43"></path>
    </g>
</svg>